^D:\LESSON15\LESSON15\LESSON15\LESSON15.CPP|D:\LESSON15\LESSON15\LESSON15\MATH.CPP
D:\LESSON15\LESSON15\LESSON15\RELEASE\VC142.PDB
D:\LESSON15\LESSON15\LESSON15\RELEASE\MATH.OBJ
^D:\LESSON15\LESSON15\LESSON15\MATH.CPP
D:\LESSON15\LESSON15\LESSON15\RELEASE\MATH.OBJ
^D:\LESSON15\LESSON15\LESSON15\LESSON15.CPP
D:\LESSON15\LESSON15\LESSON15\RELEASE\VC142.PDB
D:\LESSON15\LESSON15\LESSON15\RELEASE\LESSON15.OBJ
