^D:\LESSON15\LESSON15\LESSON15\DEBUG\LESSON15.OBJ|D:\LESSON15\LESSON15\LESSON15\DEBUG\MATH.OBJ
C:\PROGRAM FILES (X86)\WINDOWS KITS\10\LIB\10.0.20348.0\UM\X86\KERNEL32.LIB
C:\PROGRAM FILES (X86)\WINDOWS KITS\10\LIB\10.0.20348.0\UM\X86\USER32.LIB
C:\PROGRAM FILES (X86)\WINDOWS KITS\10\LIB\10.0.20348.0\UM\X86\GDI32.LIB
C:\PROGRAM FILES (X86)\WINDOWS KITS\10\LIB\10.0.20348.0\UM\X86\WINSPOOL.LIB
C:\PROGRAM FILES (X86)\WINDOWS KITS\10\LIB\10.0.20348.0\UM\X86\COMDLG32.LIB
C:\PROGRAM FILES (X86)\WINDOWS KITS\10\LIB\10.0.20348.0\UM\X86\ADVAPI32.LIB
C:\PROGRAM FILES (X86)\WINDOWS KITS\10\LIB\10.0.20348.0\UM\X86\SHELL32.LIB
C:\PROGRAM FILES (X86)\WINDOWS KITS\10\LIB\10.0.20348.0\UM\X86\OLE32.LIB
C:\PROGRAM FILES (X86)\WINDOWS KITS\10\LIB\10.0.20348.0\UM\X86\OLEAUT32.LIB
C:\PROGRAM FILES (X86)\WINDOWS KITS\10\LIB\10.0.20348.0\UM\X86\UUID.LIB
C:\PROGRAM FILES (X86)\WINDOWS KITS\10\LIB\10.0.20348.0\UM\X86\ODBC32.LIB
C:\PROGRAM FILES (X86)\WINDOWS KITS\10\LIB\10.0.20348.0\UM\X86\ODBCCP32.LIB
D:\LESSON15\LESSON15\LESSON15\DEBUG\LESSON15.OBJ
D:\LESSON15\LESSON15\LESSON15\DEBUG\MATH.OBJ
D:\LESSON15\LESSON15\LESSON15\DEBUG\LESSON15.ILK
C:\WINDOWS\SYSTEM32\TZRES.DLL
C:\WINDOWS\GLOBALIZATION\SORTING\SORTDEFAULT.NLS
D:\PROGRAMS\VISUALSTUDIOCOMMUNITY2019\VC\TOOLS\MSVC\14.29.30037\LIB\X86\MSVCPRTD.LIB
D:\PROGRAMS\VISUALSTUDIOCOMMUNITY2019\VC\TOOLS\MSVC\14.29.30037\LIB\X86\MSVCRTD.LIB
D:\PROGRAMS\VISUALSTUDIOCOMMUNITY2019\VC\TOOLS\MSVC\14.29.30037\LIB\X86\OLDNAMES.LIB
D:\PROGRAMS\VISUALSTUDIOCOMMUNITY2019\VC\TOOLS\MSVC\14.29.30037\LIB\X86\VCRUNTIMED.LIB
C:\PROGRAM FILES (X86)\WINDOWS KITS\10\LIB\10.0.20348.0\UCRT\X86\UCRTD.LIB
